Getting PGS Performance Metrics • quincunx
…
#> 1 PPM000001 PSS000001         1 eval        67054        33673           33381
#> # ℹ 9 more variables: sample_percent_male <dbl>, phenotype_description <chr>,
#> #   ancestry_category <chr>, ancestry <chr>, country <chr>,
#> #   ancestry_additional_description <chr>, study_id <chr>, pubmed_id <chr>,
#> #   cohorts_additional_description <chr>
#> 
#> Slot "demographics":
#> # A tibble: 0 × 12
#> # ℹ 12 variables: ppm_id <chr>, pss_id <chr>, sample_id <int>, variable <chr>,
#> #   estimate_type <chr>, estimate <dbl>, unit <chr>, variability_type <chr>,
#> #   variability <dbl>, interval_type <chr>, interval_lower <dbl>,
#> #   interval_upper <dbl>
#> 
#> Slot "cohorts":
#> # A tibble: 33 × 5
#>    ppm_id    pss_id    sample_id cohort_symbol cohort_name                      
#>    <chr>     <chr>         <int> <chr>         <chr>                            
#>  1 PPM000001 PSS000001         1 ABCFS         Australian Breast Cancer Family …
#>  2 PPM000001 PSS000001         1 MCCS          Melbourne Collaborative Cohort S…
#>  3 PPM000001 PSS000001         1 HMBCS         Hannover-Minsk Breast Cancer Stu…
#>  4 PPM000001 PSS000001         1 LMBC          Leuven Multidisciplinary Breast …
#>  5 PPM000001 PSS000001         1 MTLGEBCS      Montreal Gene-Environment Breast…
#>  6 PPM000001 PSS000001         1 CGPS          Copenhagen General Population St…
#>  7 PPM000001 PSS000001         1 KBCP          Kuopio Breast Cancer Project     
#>  8 PPM000001 PSS000001         1 OBCS          Oulu Breast Cancer Study         
#>  9 PPM000001 PSS000001         1 CECILE        CECILE Breast Cancer Study       
#> 10 PPM000001 PSS000001         1 BBCC          Bavarian Breast Cancer Cases and…
#> # ℹ 23 more rows
…
#> # ℹ 9 more variables: sample_percent_male <dbl>, phenotype_description <chr>,
#> #   ancestry_category <chr>, ancestry <chr>, country <chr>,
#> #   ancestry_additional_description <chr>, study_id <chr>, pubmed_id <chr>,
#> #   cohorts_additional_description <chr>
#> 
#> Slot "demographics":
#> # A tibble: 1 × 12
#>   ppm_id pss_id sample_id variable estimate_type estimate unit  variability_type
#>   <chr>  <chr>      <int> <chr>    <chr>            <dbl> <chr> <chr>           
#> 1 PPM01… PSS01…         1 age      NA                  NA years NA              
#> # ℹ 4 more variables: variability <dbl>, interval_type <chr>,
#> #   interval_lower <dbl>, interval_upper <dbl>
#> 
#> Slot "cohorts":
#> # A tibble: 219 × 5
#>    ppm_id    pss_id    sample_id cohort_symbol cohort_name                      
#>    <chr>     <chr>         <int> <chr>         <chr>                            
#>  1 PPM000001 PSS000001         1 ABCFS         Australian Breast Cancer Family …
#>  2 PPM000001 PSS000001         1 MCCS          Melbourne Collaborative Cohort S…
#>  3 PPM000001 PSS000001         1 HMBCS         Hannover-Minsk Breast Cancer Stu…
#>  4 PPM000001 PSS000001         1 LMBC          Leuven Multidisciplinary Breast …
#>  5 PPM000001 PSS000001         1 MTLGEBCS      Montreal Gene-Environment Breast…
#>  6 PPM000001 PSS000001         1 CGPS          Copenhagen General Population St…
#>  7 PPM000001 PSS000001         1 KBCP          Kuopio Breast Cancer Project     
#>  8 PPM000001 PSS000001         1 OBCS          Oulu Breast Cancer Study         
#>  9 PPM000001 PSS000001         1 CECILE        CECILE Breast Cancer Study       
#> 10 PPM000001 PSS000001         1 BBCC          Bavarian Breast Cancer Cases and…
#> # ℹ 209 more rows
…
