Getting Cohorts • quincunx
…
library(quincunx)
get_cohorts(cohort_symbol = '23andMe')
#> An object of class "cohorts"
#> Slot "cohorts":
#> # A tibble: 1 × 2
#>   cohort_symbol cohort_name
#>   <chr>         <chr>      
#> 1 23andMe       23andMe    
#> 
#> Slot "pgs_ids":
#> # A tibble: 35 × 3
#>    cohort_symbol pgs_id    stage   
#>    <chr>         <chr>     <chr>   
#>  1 23andMe       PGS000079 gwas/dev
#>  2 23andMe       PGS000157 gwas/dev
#>  3 23andMe       PGS000336 gwas/dev
#>  4 23andMe       PGS000730 gwas/dev
#>  5 23andMe       PGS000731 gwas/dev
#>  6 23andMe       PGS000732 gwas/dev
#>  7 23andMe       PGS000766 gwas/dev
#>  8 23andMe       PGS000767 gwas/dev
#>  9 23andMe       PGS000780 gwas/dev
#> 10 23andMe       PGS000790 gwas/dev
#> # ℹ 25 more rows
…
