Getting PGS Sample Sets • quincunx
…
Getting sample sets

To get information on sample sets you can either search by the
associated polygenic score identifiers, or by the sample set identifiers
themselves (if you know them beforehand).

By the PGS identifier

# Sample sets used in the evaluation of the PGS000013
(pgs_13_sset <- get_sample_sets(pgs_id = 'PGS000013'))
#> An object of class "sample_sets"
#> Slot "sample_sets":
#> # A tibble: 63 × 1
#>    pss_id   
#>    <chr>    
#>  1 PSS000015
#>  2 PSS000019
#>  3 PSS000020
#>  4 PSS000021
#>  5 PSS000022
#>  6 PSS000219
#>  7 PSS000227
#>  8 PSS000228
#>  9 PSS000229
#> 10 PSS000230
#> # ℹ 53 more rows
#> 
#> Slot "samples":
#> # A tibble: 74 × 15
#>    pss_id    sample_id stage sample_size sample_cases sample_controls
#>    <chr>         <int> <chr>       <int>        <int>           <int>
#>  1 PSS000015         1 eval       288978         8676          280302
#>  2 PSS000019         1 eval         5762          173            5589
#>  3 PSS000020         1 eval          862          446             416
#>  4 PSS000020         2 eval         2333          937            1396
#>  5 PSS000021         1 eval         1964          974             976
#>  6 PSS000022         1 eval         3309         2492             817
#>  7 PSS000219         1 eval        11010          126           10884
#>  8 PSS000227         1 eval          544           40             504
#>  9 PSS000228         1 eval         1298          336             962
#> 10 PSS000229         1 eval          919          168             751
#> # ℹ 64 more rows
#> # ℹ 9 more variables: sample_percent_male <dbl>, phenotype_description <chr>,
#> #   ancestry_category <chr>, ancestry <chr>, country <chr>,
#> #   ancestry_additional_description <chr>, study_id <chr>, pubmed_id <int>,
#> #   cohorts_additional_description <chr>
#> 
#> Slot "demographics":
#> # A tibble: 23 × 11
#>    pss_id    sample_id variable estimate_type unit  variability_type variability
#>    <chr>         <int> <chr>    <chr>         <chr> <chr>                  <dbl>
#>  1 PSS000365         1 age      mean          years NA                        NA
#>  2 PSS000365         2 age      mean          years NA                        NA
#>  3 PSS000366         1 age      mean          years NA                        NA
#>  4 PSS000366         2 age      mean          years NA                        NA
#>  5 PSS000367         1 age      mean          years NA                        NA
#>  6 PSS000367         2 age      mean          years NA                        NA
#>  7 PSS011378         1 age      median        years NA                        NA
#>  8 PSS011379         1 age      median        years NA                        NA
#>  9 PSS011380         1 age      median        years NA                        NA
#> 10 PSS000331         1 follow_… median        years NA                        NA
#> # ℹ 13 more rows
#> # ℹ 4 more variables: estimate <dbl>, interval_type <chr>,
#> #   interval_lower <dbl>, interval_upper <dbl>
#> 
#> Slot "cohorts":
#> # A tibble: 139 × 4
#>    pss_id    sample_id cohort_symbol cohort_name                                
#>    <chr>         <int> <chr>         <chr>                                      
#>  1 PSS000015         1 UKB           UK Biobank                                 
#>  2 PSS000019         1 CARTaGENE     CARTaGENE cohort (CHU Sainte-Justine, Queb…
#>  3 PSS000020         1 MHI           Montreal Heart Institute Biobank           
#>  4 PSS000020         2 MHI           Montreal Heart Institute Biobank           
#>  5 PSS000021         1 MHI           Montreal Heart Institute Biobank           
#>  6 PSS000022         1 MHI           Montreal Heart Institute Biobank           
#>  7 PSS000219         1 CG            Color Genomics                             
#>  8 PSS000227         1 VIRGO         Variation in Recovery: Role of Gender on O…
#>  9 PSS000227         1 MESA          Multi-Ethnic Study of Atherosclerosis      
#> 10 PSS000228         1 VIRGO         Variation in Recovery: Role of Gender on O…
#> # ℹ 129 more rows
…
