Getting PGS Scores • quincunx
…
#>  1 PGS000088 EFO_0005090 basophil count                    The number of … http…
#>  2 PGS000163 EFO_0005090 basophil count                    The number of … http…
#>  3 PGS001378 EFO_0005090 basophil count                    The number of … http…
#>  4 PGS003940 EFO_0005090 basophil count                    The number of … http…
#>  5 PGS004727 EFO_0005090 basophil count                    The number of … http…
#>  6 PGS004728 EFO_0005090 basophil count                    The number of … http…
#>  7 PGS004729 EFO_0005090 basophil count                    The number of … http…
#>  8 PGS004730 EFO_0005090 basophil count                    The number of … http…
#>  9 PGS000089 EFO_0007992 basophil percentage of leukocytes A calculated m… http…
#> 10 PGS000164 EFO_0007992 basophil percentage of leukocytes A calculated m… http…
#> 11 PGS001377 EFO_0007992 basophil percentage of leukocytes A calculated m… http…
#> 12 PGS003945 EFO_0007992 basophil percentage of leukocytes A calculated m… http…
#> 
#> Slot "stages_tally":
#> # A tibble: 26 × 4
#>    pgs_id    stage sample_size n_sample_sets
#>    <chr>     <chr>       <int>         <int>
#>  1 PGS000088 gwas       404718            NA
#>  2 PGS000088 dev        323774            NA
#>  3 PGS000088 eval           NA             2
#>  4 PGS000163 gwas       408112            NA
#>  5 PGS000163 eval           NA             2
#>  6 PGS001378 dev        261890            NA
#>  7 PGS001378 eval           NA             5
#>  8 PGS003940 dev        315523            NA
#>  9 PGS003940 eval           NA             5
#> 10 PGS004727 dev         13541            NA
#> # ℹ 16 more rows
#> 
#> Slot "ancestry_frequencies":
#> # A tibble: 38 × 4
#>    pgs_id    stage ancestry_class_symbol frequency
#>    <chr>     <chr> <chr>                     <dbl>
#>  1 PGS000088 gwas  EUR                         100
#>  2 PGS000088 dev   EUR                         100
#>  3 PGS000088 eval  EUR                         100
#>  4 PGS000163 gwas  EUR                         100
#>  5 PGS000163 eval  EUR                         100
#>  6 PGS001378 dev   EUR                         100
#>  7 PGS001378 eval  AFR                          20
#>  8 PGS001378 eval  EAS                          20
#>  9 PGS001378 eval  EUR                          40
#> 10 PGS001378 eval  SAS                          20
#> # ℹ 28 more rows
…
