Learning about published polygenic risk score(s) • quincunx
…
Samples table

The third table (slot) of the S4 scores object pertains the samples used in the development of the PGS scores.

mavaddat2018_scores@samples
#> # A tibble: 39 x 15
#>    pgs_id sample_id stage sample_size sample_cases sample_controls
#>    <chr>      <int> <chr>       <int>        <int>           <int>
#>  1 PGS00…         1 disc…      139274           NA              NA
#>  2 PGS00…         2 trai…      158648        88916           69732
#>  3 PGS00…         3 trai…       10444         5159            5285
#>  4 PGS00…         1 disc…      139274           NA              NA
#>  5 PGS00…         2 trai…       87368        55391           31977
#>  6 PGS00…         3 trai…        5159         4233             926
#>  7 PGS00…         1 disc…      139274           NA              NA
#>  8 PGS00…         2 trai…       87368        15404           71964
#>  9 PGS00…         3 trai…        5159          926            4233
#> 10 PGS00…         1 disc…      139274           NA              NA
#> # … with 29 more rows, and 9 more variables: sample_percent_male <dbl>,
#> #   phenotype_description <chr>, ancestry <chr>, ancestry_description <chr>,
#> #   ancestry_country <chr>, ancestry_additional_description <chr>,
#> #   study_id <chr>, pubmed_id <chr>, cohorts_additional_description <chr>
…
mavaddat2018_scores@demographics
#> # A tibble: 0 x 11
#> # … with 11 variables: pgs_id <chr>, sample_id <int>, variable <chr>,
#> #   estimate_type <chr>, estimate <dbl>, unit <chr>, variability_type <chr>,
#> #   variability <dbl>, interval_type <chr>, interval_lower <dbl>,
#> #   interval_upper <dbl>

Cohorts table

In the cohorts table you can check which cohorts belong to which samples. Note that the unique identification of a sample is given by the combination of the values of the first two columns: pgs_id, and sample_id.

TODO: Add here link to a vignette about samples.

mavaddat2018_scores@cohorts
#> # A tibble: 1,116 x 4
#>    pgs_id    sample_id cohort_symbol cohort_name                                
#>    <chr>         <int> <chr>         <chr>                                      
#>  1 PGS000004         2 ABCFS         Australian Breast Cancer Family Study      
#>  2 PGS000004         2 MCCS          Melbourne Collaborative Cohort Study       
#>  3 PGS000004         2 HMBCS         Hannover-Minsk Breast Cancer Study         
#>  4 PGS000004         2 LMBC          Leuven Multidisciplinary Breast Centre     
#>  5 PGS000004         2 MTLGEBCS      Montreal Gene-Environment Breast Cancer St…
#>  6 PGS000004         2 CGPS          Copenhagen General Population Study        
#>  7 PGS000004         2 KBCP          Kuopio Breast Cancer Project               
#>  8 PGS000004         2 OBCS          Oulu Breast Cancer Study                   
#>  9 PGS000004         2 CECILE        CECILE Breast Cancer Study                 
#> 10 PGS000004         2 BBCC          Bavarian Breast Cancer Cases and Controls  
#> # … with 1,106 more rows
…
