PGS Catalog Releases • quincunx
…
#> 1 2021-01-07     6    31     6 This release contains 6 new Score(s), 6 new Publ…
#> 
#> Slot "pgs_ids":
#> # A tibble: 6 x 2
#>   date       pgs_id   
#>   <date>     <chr>    
#> 1 2021-01-07 PGS000662
#> 2 2021-01-07 PGS000663
#> 3 2021-01-07 PGS000664
#> 4 2021-01-07 PGS000665
#> 5 2021-01-07 PGS000666
#> 6 2021-01-07 PGS000667
#> 
#> Slot "ppm_ids":
#> # A tibble: 31 x 2
#>    date       ppm_id   
#>    <date>     <chr>    
#>  1 2021-01-07 PPM001365
#>  2 2021-01-07 PPM001366
#>  3 2021-01-07 PPM001367
#>  4 2021-01-07 PPM001368
#>  5 2021-01-07 PPM001369
#>  6 2021-01-07 PPM001370
#>  7 2021-01-07 PPM001371
#>  8 2021-01-07 PPM001372
#>  9 2021-01-07 PPM001373
#> 10 2021-01-07 PPM001374
#> # … with 21 more rows
…
#>   date       n_pgs n_ppm n_pgp notes                                            
#>   <date>     <int> <int> <int> <chr>                                            
#> 1 2020-11-20     4    50     5 This release contains 4 new Score(s), 5 new Publ…
#> 
#> Slot "pgs_ids":
#> # A tibble: 4 x 2
#>   date       pgs_id   
#>   <date>     <chr>    
#> 1 2020-11-20 PGS000340
#> 2 2020-11-20 PGS000341
#> 3 2020-11-20 PGS000342
#> 4 2020-11-20 PGS000343
#> 
#> Slot "ppm_ids":
#> # A tibble: 50 x 2
#>    date       ppm_id   
#>    <date>     <chr>    
#>  1 2020-11-20 PPM000923
#>  2 2020-11-20 PPM000924
#>  3 2020-11-20 PPM000925
#>  4 2020-11-20 PPM000926
#>  5 2020-11-20 PPM000927
#>  6 2020-11-20 PPM000928
#>  7 2020-11-20 PPM000929
#>  8 2020-11-20 PPM000930
#>  9 2020-11-20 PPM000931
#> 10 2020-11-20 PPM000932
#> # … with 40 more rows
…
All releases

(all_releases <- get_releases(date = 'all'))
#> An object of class "releases"
#> Slot "releases":
#> # A tibble: 22 x 5
#>    date       n_pgs n_ppm n_pgp notes                                           
#>    <date>     <int> <int> <int> <chr>                                           
#>  1 2021-01-07     6    31     6 This release contains 6 new Score(s), 6 new Pub…
#>  2 2020-12-15   306   313     4 This release contains 306 new Score(s), 4 new P…
#>  3 2020-12-08     9    65     6 This release contains 9 new Score(s), 6 new Pub…
#>  4 2020-11-20     4    50     5 This release contains 4 new Score(s), 5 new Pub…
#>  5 2020-11-05     4    19     4 This release contains 4 new Score(s), 4 new Pub…
#>  6 2020-10-19    79    79     1 This release contains 79 new Score(s), 1 new Pu…
#>  7 2020-10-16     1     1     1 This release contains 1 new Score(s), 1 new Pub…
#>  8 2020-09-18    10    34     3 This release contains 10 new Score(s), 3 new Pu…
#>  9 2020-09-04     6    17     3 This release contains 6 new Score(s), 3 new Pub…
#> 10 2020-08-19    22    67     5 This release contains 22 new Score(s), 5 new Pu…
#> # … with 12 more rows
#> 
#> Slot "pgs_ids":
#> # A tibble: 663 x 2
#>    date       pgs_id   
#>    <date>     <chr>    
#>  1 2021-01-07 PGS000662
#>  2 2021-01-07 PGS000663
#>  3 2021-01-07 PGS000664
#>  4 2021-01-07 PGS000665
#>  5 2021-01-07 PGS000666
#>  6 2021-01-07 PGS000667
#>  7 2020-12-15 PGS000335
#>  8 2020-12-15 PGS000353
#>  9 2020-12-15 PGS000354
#> 10 2020-12-15 PGS000355
#> # … with 653 more rows
#> 
#> Slot "ppm_ids":
#> # A tibble: 1,268 x 2
#>    date       ppm_id   
#>    <date>     <chr>    
#>  1 2021-01-07 PPM001365
#>  2 2021-01-07 PPM001366
#>  3 2021-01-07 PPM001367
#>  4 2021-01-07 PPM001368
#>  5 2021-01-07 PPM001369
#>  6 2021-01-07 PPM001370
#>  7 2021-01-07 PPM001371
#>  8 2021-01-07 PPM001372
#>  9 2021-01-07 PPM001373
#> 10 2021-01-07 PPM001374
#> # … with 1,258 more rows
#> 
#> Slot "pgp_ids":
#> # A tibble: 125 x 2
#>    date       pgp_id   
#>    <date>     <chr>    
#>  1 2021-01-07 PGP000122
#>  2 2021-01-07 PGP000123
#>  3 2021-01-07 PGP000124
#>  4 2021-01-07 PGP000125
#>  5 2021-01-07 PGP000126
#>  6 2021-01-07 PGP000127
#>  7 2020-12-15 PGP000102
#>  8 2020-12-15 PGP000118
#>  9 2020-12-15 PGP000119
#> 10 2020-12-15 PGP000120
#> # … with 115 more rows
…
